hardware/core/Processor/output_wave.vcd
$date
	Sat Oct 11 23:38:19 2025
$end
$version
	Icarus Verilog
$end
$timescale
	1s
$end
$scope module stimulus $end
$scope module test_processor $end
$var wire 1 ! clock $end
$var wire 1 " reset $end
$var wire 1 # zero $end
$var wire 1 $ regwrite $end
$var wire 32 % instruction_code [31:0] $end
$var wire 4 & alu_control [3:0] $end
$scope module IFU_module $end
$var wire 1 ! clock $end
$var wire 1 " reset $end
$var wire 32 ' Instruction_Code [31:0] $end
$var reg 32 ( PC [31:0] $end
$upscope $end
$scope module control_module $end
$var wire 3 ) funct3 [2:0] $end
$var wire 7 * funct7 [6:0] $end
$var wire 7 + opcode [6:0] $end
$var reg 4 , alu_control [3:0] $end
$var reg 1 $ regwrite_control $end
$upscope $end
$scope module datapath_module $end
$var wire 4 - alu_control [3:0] $end
$var wire 1 ! clock $end
$var wire 5 . read_reg_num1 [4:0] $end
$var wire 5 / read_reg_num2 [4:0] $end
$var wire 1 $ regwrite $end
$var wire 1 " reset $end
$var wire 5 0 write_reg [4:0] $end
$var wire 1 # zero_flag $end
$var wire 32 1 write_data [31:0] $end
$var wire 32 2 read_data2 [31:0] $end
$var wire 32 3 read_data1 [31:0] $end
$upscope $end
$upscope $end
$upscope $end
$enddefinitions $end
$comment Show the parameter values. $end
$dumpall
$end
#0
$dumpvars
b1000 3
b1001 2
b10001 1
b110 0
b1001 /
b1000 .
b10 -
b10 ,
b110011 +
b0 *
b0 )
b0 (
b100101000000001100110011 '
b10 &
b100101000000001100110011 %
1$
0#
1"
0!
$end
#20
1!
#40
0!
#50
0"
#60
b100 &
b100 ,
b100 -
b11111111111111111111111111111111 1
b100000 *
b11001 2
b10011 /
b11000 3
b10010 .
b111 0
b1000001001110010000001110110011 %
b1000001001110010000001110110011 '
b100 (
1!
#80
0!
#100
b1 *
b100001 2
b10101 /
b100000 3
b10100 .
b101 0
b11010110100000001010110011 %
b11010110100000001010110011 '
b1000 (
1!
#120
0!
#140
b1 1
b111 &
b111 ,
b111 -
b0 *
b100011 2
b10111 /
b100010 3
b10110 .
b100 )
b11100 0
b1011110110100111000110011 %
b1011110110100111000110011 '
b1100 (
1!
#160
0!
#180
1#
b0 1
b11 &
b11 ,
b11 -
b100101 2
b11001 /
b100100 3
b11000 .
b1 )
b11101 0
b1100111000001111010110011 %
b1100111000001111010110011 '
b10000 (
1!
#200
0!
#220
b101 &
b101 ,
b101 -
b100111 2
b11011 /
b100110 3
b11010 .
b101 )
b11110 0
b1101111010101111100110011 %
b1101111010101111100110011 '
b10100 (
1!
#240
0!
#260
0#
b10010 1
b0 &
b0 ,
b0 -
b10011 2
b1101 /
b10010 3
b1100 .
b111 )
b11111 0
b110101100111111110110011 %
b110101100111111110110011 '
b11000 (
1!
#280
0!
#300
b10101 1
b1 &
b1 ,
b1 -
b10101 2
b1111 /
b10100 3
b1110 .
b10001 0
b110 )
b111101110110100010110011 %
b111101110110100010110011 '
b11100 (
1!
